*--------------------------------------------------------------------------------
* Periphery Registers
*--------------------------------------------------------------------------------
* RegName                                    	Page	Addr	Defval	Value

ReadoutMode 	0x0	 0x8800	0x0	0x0
ECM 		0x0	 0x8801	0x8	0x81
CalDAC0 	0x0	 0x8840	0x0	0x0
CalDAC1 	0x0	 0x8841	0x0	0x0
CalDAC2 	0x0	 0x8842	0x0	0x0
CalDAC3 	0x0	 0x8843	0x0	0x0
CalDAC4 	0x0	 0x8844	0x0	0x0
CalDAC5 	0x0	 0x8845	0x0	0x0
CalDAC6 	0x0	 0x8846	0x0	0x0
ThDAC0 		0x0	 0x8847	0x0	0x0
ThDAC1 		0x0	 0x8848	0x0	0x0
ThDAC2 		0x0	 0x8849	0x0	0x0
ThDAC3 		0x0	 0x884a	0x0	0x0
ThDAC4 		0x0	 0x884b	0x0	0x0
ThDAC5 		0x0	 0x884c	0x0	0x0
ThDAC6 		0x0	 0x884d	0x0	0x0
LFSR_data	0x0      0x8824	0x0	0xa0
LatencyRx320	0x0      0x8822	0x0	0x0C
LatencyRx40	0x0      0x8823	0x0	0x01

ConfSLVS	0x0	 0x8826	0x0	0x3F
RetimePix       0x0	 0x8802	0x0	0x0
EdgeSelTrig 	0x0   	 0x881d 0xff 	0xff
EdgeSelT1Raw 	0x0 	 0x881e 0x3 	0x03
SSAOffset_1  	0x0 	 0x882C 0x5 	0x5
SSAOffset_2  	0x0 	 0x882D 0x0 	0x0
PhaseShift	0x0	 0x8820	0x0     0x0

OutSetting_0	0x0  	0x880E 	0x0	0x5
OutSetting_1	0x0  	0x880F 	0x0	0x4
OutSetting_2	0x0  	0x8810 	0x0	0x3
OutSetting_3	0x0  	0x8811 	0x0	0x2
OutSetting_4	0x0  	0x8812 	0x0	0x1
OutSetting_5	0x0  	0x8813 	0x0	0x0

InSetting_0	0x0	0x8814 	0x8	0x8	
InSetting_1	0x0	0x8815 	0x0	0x1
InSetting_2	0x0	0x8816 	0x1	0x2
InSetting_3	0x0	0x8817 	0x2	0x3
InSetting_4	0x0	0x8818 	0x3	0x4
InSetting_5	0x0	0x8819 	0x4	0x5
InSetting_6	0x0	0x881A 	0x5	0x6
InSetting_7	0x0	0x881B 	0x6	0x7
InSetting_8	0x0	0x881C 	0x7	0x0


*--------------------------------------------------------------------------------
* Row Registers
*--------------------------------------------------------------------------------
* RegName                                    	Page	Addr	Defval	Value

L1Offset_1_ALL			0x0	0xf9		0x0	0x0
L1Offset_2_ALL			0x0	0x179		0x0	0x0
ClrRst_ALL			    0x0	0x1f9		0xef	0xff
MemGateEn_ALL			0x0 0x279		0x01    0x01  

*--------------------------------------------------------------------------------
* Pixel Registers
*--------------------------------------------------------------------------------
* RegName                                    	Page	Addr	Defval	Value


ENFLAGS_ALL				0x0	0x0	0x57	0x57
ModeSel_ALL				0x0	0x80	0x0	0x0
TrimDAC_ALL				0x0	0x100	0xF	0xF
ClusterCut_ALL  			0x0	0x180	0x5	0x5
HipCut_ALL				0x0	0x200	0x0	0x0
DigPattern_ALL  			0x0	0x280	0x0	0x00
ReadCounter_LSB_ALL			0x0	0x480	0x0	0x0
ReadCounter_MSB_ALL			0x0	0x500	0x0	0x0